2.540566776275634879e+02
2.804117742538452163e+01
2.002918230056762638e+01
1.815957659721374640e+01
1.717227435111999512e+01
1.605471451759338208e+01
1.507703500747680714e+01
1.433057869911193904e+01
1.377462146759033246e+01
1.318228714942932100e+01
1.272664516448974581e+01
1.232260849952697690e+01
1.199134769439697301e+01
1.162268882751464893e+01
1.135728378295898366e+01
1.118668575286865163e+01
1.094097014427185144e+01
1.087918102264404219e+01
1.066793299674987772e+01
1.058083397865295439e+01
1.055016686439514118e+01
1.034130924224853487e+01
1.023186382293701158e+01
9.861998510360717063e+00
9.937837734222412678e+00
9.805995769500732706e+00
9.683370532989501456e+00
9.646948714256286195e+00
9.603279438018798686e+00
9.557827911376953978e+00
9.505337400436401296e+00
9.584452610015869567e+00
9.463032917976379466e+00
9.384948520660399751e+00
9.391221222877502939e+00
9.386538438796996786e+00
9.379527678489685272e+00
9.326116986274719522e+00
9.336410102844238779e+00
9.286498808860779164e+00
9.054865541458129385e+00
9.064371585845947266e+00
9.028671469688415385e+00
9.050245251655578471e+00
8.898792648315430043e+00
8.859873275756836364e+00
8.811760783195495605e+00
8.789147977828980274e+00
8.754333925247191672e+00
8.754880738258361106e+00
