2.662012908554077057e+02
2.935291835784911996e+01
2.006885116577148409e+01
1.832565380096435703e+01
1.721439186096191420e+01
1.641144086837768512e+01
1.558472846984863303e+01
1.482284247398376387e+01
1.405006363868713315e+01
1.359494310379028370e+01
1.290958310127258279e+01
1.261535985946655281e+01
1.225160162925720186e+01
1.179953735351562472e+01
1.157898833274841266e+01
1.140287693977355943e+01
1.112103604316711447e+01
1.090595068931579625e+01
1.087736728668212827e+01
1.065046724319457994e+01
1.048216724395751953e+01
1.042620954513549769e+01
1.042600155830383279e+01
1.027238395690917905e+01
1.007783338546752994e+01
9.810286550521849946e+00
9.793362998962402699e+00
9.681759872436522585e+00
9.677309541702269868e+00
9.656430912017821555e+00
9.587354421615600586e+00
9.503377680778504200e+00
9.394241805076598339e+00
9.259000515937804821e+00
9.371910095214843750e+00
9.304873528480529288e+00
9.236913499832153818e+00
9.207152771949768777e+00
9.138778538703919097e+00
9.080394210815429190e+00
9.076013965606689382e+00
9.029903063774108674e+00
9.021237921714782004e+00
8.931707544326782156e+00
9.021054139137268280e+00
8.936961030960082653e+00
8.942432413101196076e+00
8.900197167396544984e+00
8.854314041137694602e+00
8.858483853340148428e+00
