3.972898769378662109e+02
3.065646856307983370e+01
1.898416803359985394e+01
1.676531566619873104e+01
1.547623596191406214e+01
1.433321166038513184e+01
1.339606297492981035e+01
1.268893617630004833e+01
1.193296380043029714e+01
1.141070496559142988e+01
1.094838661193847607e+01
1.047631554603576731e+01
1.020911471366882317e+01
9.928843650817871236e+00
9.660542001724243377e+00
9.453036651611327557e+00
9.183963871002196910e+00
9.071236877441405611e+00
8.961308898925780753e+00
8.875908322334289835e+00
8.790226559638977477e+00
8.594766077995300790e+00
8.619720196723937633e+00
8.390894808769225222e+00
8.405294799804687855e+00
8.329590339660644105e+00
8.285701475143433470e+00
8.189458160400389986e+00
8.170081391334534260e+00
8.169423332214355682e+00
7.792976431846618368e+00
7.734735093116760218e+00
7.711281991004943492e+00
7.729205403327942037e+00
7.598836579322814977e+00
7.606269435882568430e+00
7.589257626533508549e+00
7.373885407447814622e+00
7.377653865814209233e+00
7.384059143066406428e+00
7.296876206398009934e+00
7.289624481201172124e+00
7.237217335700989018e+00
7.227977795600891042e+00
7.257398786544800195e+00
7.281401238441467250e+00
7.229736881256103587e+00
7.150377058982849476e+00
7.129397959709167232e+00
6.982183165550232218e+00
