1.973117868995666413e+02
2.580163036346435490e+01
1.809592836380004854e+01
1.657153573036193706e+01
1.518842516899108830e+01
1.403290698051452701e+01
1.306910187721252470e+01
1.222001878738403313e+01
1.183678300857543952e+01
1.107880889892578047e+01
1.060311892509460385e+01
1.020361005783080977e+01
9.838553600311279013e+00
9.444920434951782795e+00
9.304121112823485973e+00
9.227667102813720490e+00
8.945067548751831410e+00
8.674982128143311044e+00
8.622887034416198304e+00
8.506966443061829253e+00
8.329990777969360494e+00
8.324419064521789480e+00
8.215648469924927255e+00
8.180155000686646360e+00
7.975650758743285884e+00
8.034597449302673056e+00
8.140566430091858763e+00
7.711523795127869008e+00
7.603631772994995153e+00
7.590022315979004119e+00
7.475658206939697514e+00
7.432273406982421449e+00
7.442958092689513805e+00
7.440695872306823944e+00
7.368005013465880992e+00
7.374918508529662908e+00
7.308738970756531117e+00
7.319541378021240163e+00
7.214507532119751154e+00
7.082800731658935867e+00
7.124481868743896662e+00
7.036977372169494593e+00
7.005263056755065776e+00
6.945747661590575994e+00
6.866178236007690394e+00
6.875575895309448349e+00
6.814437332153320703e+00
6.773598365783691122e+00
6.790575299263000630e+00
6.763692183494567800e+00
