2.584660328292846430e+02
2.706176874160766488e+01
1.877466476440429588e+01
1.674181170463561941e+01
1.552859944343566845e+01
1.508215217590332102e+01
1.444234208106994544e+01
1.382832054138183508e+01
1.352930029869079576e+01
1.306433611869812061e+01
1.262117693901062054e+01
1.228079893112182575e+01
1.192982286453247021e+01
1.160572973251342788e+01
1.136993578910827551e+01
1.114960703849792445e+01
1.091696911811828663e+01
1.060481662750244070e+01
1.052574863433837926e+01
1.032493764877319364e+01
1.005225805282592688e+01
9.863638095855712606e+00
9.748603916168212535e+00
9.582769651412963441e+00
9.461641540527343963e+00
9.324809656143187908e+00
9.258769092559814951e+00
9.080408535003662962e+00
8.944763612747191672e+00
9.163617897033692117e+00
8.824892668724059419e+00
8.889389944076537375e+00
8.704896774291992045e+00
8.719672365188598562e+00
8.709498453140259500e+00
8.600797839164734171e+00
8.549100446701050515e+00
8.244233860969544025e+00
8.195914025306700879e+00
8.123774805068968874e+00
8.075656805038452291e+00
7.948904585838318049e+00
7.960644664764404688e+00
7.899670367240905655e+00
7.884039096832275106e+00
7.822688617706298864e+00
7.786242713928222869e+00
7.702141909599304448e+00
7.730064978599548553e+00
7.667620134353637873e+00
