2.351914439773559593e+02
2.684756097793579244e+01
1.834960435867309414e+01
1.647380594253539954e+01
1.522322324752807532e+01
1.426686566352844210e+01
1.320563168525695730e+01
1.242509613990783635e+01
1.173491564750671401e+01
1.124532270431518555e+01
1.078555891990661664e+01
1.022917422294616685e+01
1.001330440521240206e+01
9.703085184097290039e+00
9.531065645217895010e+00
9.187894115447997834e+00
9.001517133712768626e+00
8.815730791091919372e+00
8.731871418952941610e+00
8.555791697502137083e+00
8.412219448089599538e+00
8.387536091804504323e+00
8.292408881187439462e+00
8.208884978294372914e+00
8.221968812942504812e+00
8.095802912712096955e+00
8.062361397743224245e+00
7.727567763328551997e+00
7.703861742019653569e+00
7.660030083656311106e+00
7.559545407295226838e+00
7.491743712425232182e+00
7.507783226966857626e+00
7.542719798088073802e+00
7.511546430587768164e+00
7.258367595672607031e+00
7.204462313652038929e+00
7.182908825874328329e+00
7.155122442245483327e+00
7.155898442268371795e+00
7.102123932838440012e+00
7.075755567550658931e+00
7.009285402297973810e+00
6.981239447593688752e+00
6.976480593681335662e+00
6.913790163993835058e+00
6.915366749763489196e+00
6.924115056991577255e+00
6.918503575325011923e+00
6.847625684738159357e+00
